,company_name,address_1,latitude,longitude
0,Stuppy Greenhouses,1212 Clay North Kansas City MO 64116,39.131214,-94.579244
1,Agratech,"2131 Piedmont Way, Pittsburg, CA 94565",38.0110463,-121.8719601
2,Hort Americas ,"2801 Renee St. Bedford, Texas 76021",32.8510815,-97.1008647
3,Oregon Valley Greenhouses,"20357 Pacific Hwy E, Aurora, OR 97002",45.2150518,-122.7672184
4,Rough Brothers Inc,"5513 Vine St, Cincinnati, OH 45217, USA",39.1802301,-84.49782549999999
5,Nexus Corp," 6 Industrial Park Dr, Pana, IL, 62557-6814, US",39.3989032,-89.1076794
6,Nexus Corp,"10983 Leroy Dr, Northglenn, CO 80233, USA",39.8957573,-104.9641894
7, Conley's Manufacturing and Sales.,"4344 Mission Blvd.  Montclair, California ",34.0568523,-117.711175
8,Delta T Systems,"2171 WI-175, Richfield, WI 53076, USA",43.2693211,-88.20556119999999
9,Rimol Greenhouses,"40 Londonderry Turnpike, Hooksett, NH 03106, USA",43.016823,-71.4041493
10,American Plant Products and Services,"9200 N.W. 10th, Oklahoma City, OK",35.477846,-97.673121
11,United Greenhouse Systems,"1857 Tower Drive, Edgerton, WI. 53534",42.8384102,-89.09771529999999
12,Crop King,"134 West Drive, Lodi, OH  44254 USA",41.03079049999999,-82.03262529999999
13,ACW (130 years),"857 Bryant St, Denver, CO 80204 USA",39.7306229,-105.0200366
14,Griffen Greenhouse Supply,"2450 North Airport Blvd, Building 1 Unit: H, Aurora CO 80011",39.7537224,-104.7911461
15,Griffen Greenhouse Supply,"1 Ellis Drive Auburn, NY 13021",42.92470489999999,-76.59704169999999
16,Griffen Greenhouse Supply,"1619 Main Street Tewksbury, MA 01876",42.59531279999999,-71.2169782
17,Griffen Greenhouse Supply,"5350 Ball Ground Hwy Ball Ground, GA 30107",34.294024,-84.4170204
18,Griffen Greenhouse Supply,2421 old Hardin Road Billings MT 59101,45.8089816,-108.4238197
19,Griffen Greenhouse Supply,"1240B, Highway 77 Bridgeton, NJ 08302",39.48306880000001,-75.20929819999999
20,Griffen Greenhouse Supply,"2165 Montauk Highway Brookhaven, NY 11719",40.7792313,-72.926355
21,Griffen Greenhouse Supply,"20 Grandview Court Cheshire, CT 06410",41.5413065,-72.90222179999999
22,Griffen Greenhouse Supply,"1005 Whitehead Road Extension Ewing, NJ 08638",40.2596971,-74.75145669999999
23,Griffen Greenhouse Supply,"50 West Gray Road Gray, ME 04039",43.88326199999999,-70.3401708
24,Griffen Greenhouse Supply,"7141 Old Rutledge Pike Knoxville, TN 37924",36.03634,-83.821197
25,Griffen Greenhouse Supply,"4951 Indiana Avenue, Suite 450, Lisle, IL 60532-3672",41.79519519999999,-88.0953425
26,Griffen Greenhouse Supply,"200 Mountain View Road, P.O. Box 709",40.4782287,-74.6701191
27,Griffen Greenhouse Supply,"5612 Pride Road Richmond, VA 23224-1028",37.5027995,-77.50039869999999
28,Griffen Greenhouse Supply,"126 Van Guysling Ave Schenectady, NY 12305",42.8066809,-73.9481812
29,International Greenhouse Company,"3740 Seaport Blvd, Suite 10, West Sacramento, CA 95691",38.5667163,-121.5682179
30,International Greenhouse Company,"70 Eastgate Dr. Danville, IL 61834 USA",40.1302118,-87.5521009
31,Atlas Greenhouse System USA,"9596 US-82, Alapaha, GA 31622, USA",31.382938,-83.21519599999999
32,LL Klink,"14800 Foltz Pkwy, Strongsville, OH 44136, USA",41.307481,-81.872736
33,Amhydro,"286 South G Street, Arcata,  CA  95521-6670",40.8638641,-124.0874115
34,Bright Agrotech (Plenty),"1461 Commerce Dr, Laramie, WY 82070, USA",41.3006613,-105.613991
35,Current Culture,"4333 S Minnewawa Ave #101, Fresno, CA 93725, USA",36.6729969,-119.7105684
36,Hydrobuilder,"312 Otterson Dr Ste D, Chico, CA 95928, USA",39.7065176,-121.8188057
37,Boldly Grow Hydro,"1271 E Colorado Blvd, Pasadena, CA 91106, USA",34.1461916,-118.1240387
38,Modular Farms,"217 Wilkinson Rd, Brampton, ON L6T 4M2, Canada",43.6867772,-79.6957549
39,Hort. Services,"3707 179th Ave E, Lake Tapps WA 98391",47.223991,-122.1880481
